75,325,4.333333333333333,1.0640618801116943,False
75,325,4.333333333333333,1.0611979961395264,False
75,325,4.333333333333333,0.5541040897369385,True
75,325,4.333333333333333,1.0903699398040771,False
75,325,4.333333333333333,1.0714540481567383,False
75,325,4.333333333333333,0.9908158779144287,True
75,325,4.333333333333333,1.0866219997406006,False
75,325,4.333333333333333,0.10138893127441406,True
75,325,4.333333333333333,0.3449399471282959,True
75,325,4.333333333333333,0.28836798667907715,True
75,325,4.333333333333333,0.07938408851623535,True
75,325,4.333333333333333,0.6399679183959961,True
75,325,4.333333333333333,1.123932123184204,False
75,325,4.333333333333333,1.0761048793792725,False
75,325,4.333333333333333,1.0597069263458252,False
75,325,4.333333333333333,1.091203212738037,False
75,325,4.333333333333333,0.36020493507385254,True
75,325,4.333333333333333,1.0598108768463135,False
75,325,4.333333333333333,1.1303539276123047,False
75,325,4.333333333333333,1.050520896911621,False
75,325,4.333333333333333,1.082468032836914,False
75,325,4.333333333333333,1.0671539306640625,False
75,325,4.333333333333333,1.0512089729309082,False
75,325,4.333333333333333,1.1523139476776123,False
75,325,4.333333333333333,1.0303668975830078,False
75,325,4.333333333333333,1.0893981456756592,False
75,325,4.333333333333333,0.14865589141845703,True
75,325,4.333333333333333,1.1315929889678955,False
75,325,4.333333333333333,1.0763070583343506,False
75,325,4.333333333333333,1.0982301235198975,False
75,325,4.333333333333333,1.0695629119873047,False
75,325,4.333333333333333,0.09986591339111328,True
75,325,4.333333333333333,1.0793840885162354,False
75,325,4.333333333333333,0.1352999210357666,True
75,325,4.333333333333333,1.0762858390808105,False
75,325,4.333333333333333,1.05330491065979,True
75,325,4.333333333333333,0.2537851333618164,True
75,325,4.333333333333333,1.0796499252319336,False
75,325,4.333333333333333,1.1267619132995605,False
75,325,4.333333333333333,1.0930559635162354,False
75,325,4.333333333333333,1.063844919204712,False
75,325,4.333333333333333,1.0874459743499756,False
75,325,4.333333333333333,1.1212689876556396,False
75,325,4.333333333333333,1.0701351165771484,False
75,325,4.333333333333333,1.1034998893737793,False
75,325,4.333333333333333,1.0460381507873535,False
75,325,4.333333333333333,0.6539649963378906,True
75,325,4.333333333333333,0.33542394638061523,True
75,325,4.333333333333333,1.0722589492797852,False
75,325,4.333333333333333,0.4802432060241699,True
75,325,4.333333333333333,1.0578160285949707,False
75,325,4.333333333333333,1.0620570182800293,False
75,325,4.333333333333333,1.0630578994750977,False
75,325,4.333333333333333,1.0793700218200684,False
75,325,4.333333333333333,0.8334259986877441,True
75,325,4.333333333333333,0.08030915260314941,True
75,325,4.333333333333333,1.0747439861297607,False
75,325,4.333333333333333,0.1311948299407959,True
75,325,4.333333333333333,0.6596469879150391,True
75,325,4.333333333333333,1.0539309978485107,False
75,325,4.333333333333333,0.5206520557403564,True
75,325,4.333333333333333,1.0892469882965088,False
75,325,4.333333333333333,0.7063689231872559,True
75,325,4.333333333333333,1.1258149147033691,False
75,325,4.333333333333333,0.35142993927001953,True
75,325,4.333333333333333,1.050475835800171,True
75,325,4.333333333333333,1.0607991218566895,False
75,325,4.333333333333333,1.080777883529663,False
75,325,4.333333333333333,1.0910439491271973,False
75,325,4.333333333333333,1.0584971904754639,False
75,325,4.333333333333333,1.1157429218292236,False
75,325,4.333333333333333,0.5099108219146729,True
75,325,4.333333333333333,1.198767900466919,False
75,325,4.333333333333333,0.5286369323730469,True
75,325,4.333333333333333,1.0690548419952393,False
75,325,4.333333333333333,1.0617270469665527,False
75,325,4.333333333333333,1.0596561431884766,False
75,325,4.333333333333333,1.2048511505126953,False
75,325,4.333333333333333,1.0455141067504883,True
75,325,4.333333333333333,0.6201491355895996,True
75,325,4.333333333333333,1.0573468208312988,False
75,325,4.333333333333333,0.211838960647583,True
75,325,4.333333333333333,0.21366286277770996,True
75,325,4.333333333333333,0.2830839157104492,True
75,325,4.333333333333333,0.25042200088500977,True
75,325,4.333333333333333,1.114353895187378,False
75,325,4.333333333333333,1.1203019618988037,False
75,325,4.333333333333333,1.1223878860473633,False
75,325,4.333333333333333,0.6189570426940918,True
75,325,4.333333333333333,1.1457738876342773,False
75,325,4.333333333333333,0.6632378101348877,True
75,325,4.333333333333333,0.13476800918579102,True
75,325,4.333333333333333,1.0759119987487793,False
75,325,4.333333333333333,1.1990330219268799,False
75,325,4.333333333333333,1.087996006011963,False
75,325,4.333333333333333,0.2579989433288574,True
75,325,4.333333333333333,0.48136401176452637,True
75,325,4.333333333333333,1.0806400775909424,False
75,325,4.333333333333333,0.9964818954467773,True
75,325,4.333333333333333,1.099905014038086,False
100,430,4.3,0.4319651126861572,True
100,430,4.3,1.4658567905426025,False
100,430,4.3,0.9664168357849121,True
100,430,4.3,1.4295368194580078,False
100,430,4.3,1.4312129020690918,False
100,430,4.3,1.4417848587036133,False
100,430,4.3,1.4221360683441162,False
100,430,4.3,0.5704360008239746,True
100,430,4.3,1.4157640933990479,False
100,430,4.3,0.5992469787597656,True
100,430,4.3,1.4223659038543701,False
100,430,4.3,1.4898159503936768,False
100,430,4.3,1.4713990688323975,False
100,430,4.3,0.9195840358734131,True
100,430,4.3,1.3843050003051758,False
100,430,4.3,0.2501559257507324,True
100,430,4.3,1.4225819110870361,False
100,430,4.3,1.4670240879058838,False
100,430,4.3,1.4182219505310059,False
100,430,4.3,1.2087068557739258,True
100,430,4.3,1.3353748321533203,True
100,430,4.3,1.353283166885376,False
100,430,4.3,0.5445268154144287,True
100,430,4.3,1.4575409889221191,False
100,430,4.3,1.4448299407958984,False
100,430,4.3,0.34951090812683105,True
100,430,4.3,1.3930070400238037,False
100,430,4.3,0.8315927982330322,True
100,430,4.3,1.4231021404266357,False
100,430,4.3,1.4260919094085693,False
100,430,4.3,1.3809919357299805,False
100,430,4.3,1.4154820442199707,False
100,430,4.3,0.6518418788909912,True
100,430,4.3,1.4286930561065674,False
100,430,4.3,1.380053997039795,False
100,430,4.3,1.4908888339996338,False
100,430,4.3,0.36164212226867676,True
100,430,4.3,1.4150078296661377,False
100,430,4.3,1.428541898727417,False
100,430,4.3,0.17046904563903809,True
100,430,4.3,1.4262700080871582,False
100,430,4.3,1.4752299785614014,False
100,430,4.3,1.4623448848724365,False
100,430,4.3,1.6672420501708984,False
100,430,4.3,0.7507359981536865,True
100,430,4.3,1.4369900226593018,False
100,430,4.3,1.4122059345245361,False
100,430,4.3,0.2193291187286377,True
100,430,4.3,1.0523550510406494,True
100,430,4.3,1.4880352020263672,False
100,430,4.3,1.4029200077056885,False
100,430,4.3,1.401075839996338,False
100,430,4.3,1.4176490306854248,True
100,430,4.3,0.5651240348815918,True
100,430,4.3,1.0683519840240479,True
100,430,4.3,1.4864590167999268,False
100,430,4.3,1.42771315574646,False
100,430,4.3,1.4081919193267822,False
100,430,4.3,1.4213769435882568,False
100,430,4.3,0.6707308292388916,True
100,430,4.3,0.728809118270874,True
100,430,4.3,1.3856511116027832,False
100,430,4.3,0.6486449241638184,True
100,430,4.3,1.4300799369812012,False
100,430,4.3,1.4334969520568848,False
100,430,4.3,1.4997968673706055,False
100,430,4.3,1.3602931499481201,False
100,430,4.3,1.3584489822387695,False
100,430,4.3,1.4010119438171387,False
100,430,4.3,1.3813891410827637,False
100,430,4.3,1.3449559211730957,False
100,430,4.3,1.441744089126587,False
100,430,4.3,1.3818960189819336,False
100,430,4.3,1.467972993850708,False
100,430,4.3,1.4414961338043213,False
100,430,4.3,1.4272630214691162,False
100,430,4.3,1.4173359870910645,False
100,430,4.3,1.4597530364990234,False
100,430,4.3,1.4037859439849854,False
100,430,4.3,1.4637699127197266,False
100,430,4.3,1.4595229625701904,False
100,430,4.3,0.754525899887085,True
100,430,4.3,1.3839268684387207,False
100,430,4.3,1.4594922065734863,False
100,430,4.3,1.412674903869629,False
100,430,4.3,1.386577844619751,False
100,430,4.3,0.47916293144226074,True
100,430,4.3,1.5046699047088623,False
100,430,4.3,0.6312057971954346,True
100,430,4.3,1.409512996673584,False
100,430,4.3,0.685142993927002,True
100,430,4.3,1.433912992477417,False
100,430,4.3,1.4059929847717285,False
100,430,4.3,1.4537370204925537,False
100,430,4.3,1.4620990753173828,False
100,430,4.3,1.457327127456665,False
100,430,4.3,0.554908037185669,True
100,430,4.3,1.3980989456176758,False
100,430,4.3,1.491698980331421,False
100,430,4.3,1.4363210201263428,False
100,430,4.3,1.4038641452789307,False
100,430,4.3,1.3990659713745117,False
100,430,4.3,1.2487499713897705,True
100,430,4.3,1.3979229927062988,False
100,430,4.3,1.3422660827636719,True
100,430,4.3,1.4312529563903809,False
100,430,4.3,1.4384520053863525,False
100,430,4.3,1.150662899017334,True
100,430,4.3,1.3513460159301758,False
100,430,4.3,0.5000040531158447,True
100,430,4.3,1.360687017440796,False
100,430,4.3,1.3907880783081055,False
100,430,4.3,1.3747060298919678,False
100,430,4.3,1.3818151950836182,False
100,430,4.3,1.4718849658966064,False
100,430,4.3,0.3241410255432129,True
100,430,4.3,1.4530589580535889,False
100,430,4.3,0.6577279567718506,True
100,430,4.3,1.4008159637451172,False
100,430,4.3,1.4102380275726318,False
100,430,4.3,0.31732797622680664,True
100,430,4.3,1.1129069328308105,True
100,430,4.3,1.403749942779541,False
100,430,4.3,1.408402919769287,False
100,430,4.3,1.4688661098480225,False
100,430,4.3,1.4852619171142578,False
100,430,4.3,1.404080867767334,False
100,430,4.3,1.3980638980865479,False
100,430,4.3,1.4369380474090576,False
100,430,4.3,1.4350910186767578,False
100,430,4.3,1.3985910415649414,False
100,430,4.3,1.4103431701660156,False
100,430,4.3,1.4158730506896973,False
100,430,4.3,1.4050590991973877,False
100,430,4.3,1.3932271003723145,False
100,430,4.3,1.4009249210357666,False
100,430,4.3,1.4500138759613037,False
100,430,4.3,0.7416491508483887,True
100,430,4.3,1.0865161418914795,True
100,430,4.3,1.408219814300537,False
100,430,4.3,1.0424489974975586,True
100,430,4.3,1.4090118408203125,False
100,430,4.3,1.464257001876831,False
100,430,4.3,0.6045951843261719,True
100,430,4.3,1.3965790271759033,False
100,430,4.3,1.3875370025634766,False
100,430,4.3,1.4299371242523193,False
100,430,4.3,1.4829339981079102,False
100,430,4.3,1.4035120010375977,False
100,430,4.3,1.0982639789581299,True
100,430,4.3,1.4674890041351318,False
100,430,4.3,1.4576900005340576,False
100,430,4.3,1.4065871238708496,False
100,430,4.3,1.3685100078582764,False
100,430,4.3,1.3873510360717773,False
100,430,4.3,1.4473841190338135,False
100,430,4.3,1.351046085357666,False
100,430,4.3,1.4761300086975098,False
100,430,4.3,1.396730899810791,False
100,430,4.3,1.4542248249053955,False
100,430,4.3,1.4003560543060303,False
100,430,4.3,1.3861579895019531,False
100,430,4.3,1.4014699459075928,False
100,430,4.3,1.4148578643798828,False
100,430,4.3,1.410154104232788,False
100,430,4.3,0.3688929080963135,True
100,430,4.3,1.446173906326294,False
100,430,4.3,1.4461348056793213,False
100,430,4.3,1.4304099082946777,False
100,430,4.3,1.5236380100250244,False
100,430,4.3,0.28078699111938477,True
100,430,4.3,1.110018014907837,True
100,430,4.3,1.4031062126159668,False
100,430,4.3,0.3178379535675049,True
100,430,4.3,1.4041199684143066,False
100,430,4.3,1.4325909614562988,False
100,430,4.3,1.4246299266815186,False
100,430,4.3,1.458265781402588,False
100,430,4.3,0.340731143951416,True
100,430,4.3,1.4171319007873535,False
100,430,4.3,1.4195640087127686,False
100,430,4.3,1.3560631275177002,False
100,430,4.3,0.6228840351104736,True
100,430,4.3,0.5147631168365479,True
100,430,4.3,0.6632189750671387,True
100,430,4.3,1.432060956954956,False
100,430,4.3,1.4097709655761719,False
100,430,4.3,0.8320620059967041,True
100,430,4.3,1.4129970073699951,False
100,430,4.3,1.3926291465759277,False
100,430,4.3,1.3989310264587402,False
100,430,4.3,1.2583110332489014,True
100,430,4.3,1.3622970581054688,False
100,430,4.3,1.4337611198425293,False
100,430,4.3,0.3614819049835205,True
100,430,4.3,1.3506669998168945,True
100,430,4.3,1.3892168998718262,False
100,430,4.3,1.533595085144043,False
100,430,4.3,1.409024953842163,False
100,430,4.3,1.3920650482177734,False
100,430,4.3,1.3933091163635254,False
100,430,4.3,1.413348913192749,False
100,430,4.3,1.4373979568481445,False
100,430,4.3,1.4626688957214355,False
100,430,4.3,0.7439110279083252,True
100,430,4.3,1.390185832977295,False
100,430,4.3,0.30635809898376465,True
100,430,4.3,1.406385898590088,False
100,430,4.3,1.4501090049743652,False
100,430,4.3,1.1120550632476807,True
100,430,4.3,1.4324030876159668,False
100,430,4.3,1.2973198890686035,True
100,430,4.3,1.4331088066101074,False
100,430,4.3,1.4635629653930664,False
100,430,4.3,1.4645490646362305,False
100,430,4.3,1.4197909832000732,False
100,430,4.3,1.4489929676055908,False
100,430,4.3,1.349128007888794,True
100,430,4.3,1.403212070465088,False
100,430,4.3,1.0661580562591553,True
100,430,4.3,1.3842029571533203,False
100,430,4.3,0.4331080913543701,True
100,430,4.3,1.4110260009765625,False
100,430,4.3,1.4276340007781982,False
100,430,4.3,1.3630969524383545,False
100,430,4.3,1.4404170513153076,False
100,430,4.3,1.4502959251403809,False
100,430,4.3,1.3707211017608643,False
100,430,4.3,1.3888700008392334,False
100,430,4.3,0.623546838760376,True
100,430,4.3,0.3677229881286621,True
100,430,4.3,1.4665570259094238,False
100,430,4.3,1.413172960281372,False
100,430,4.3,0.3309769630432129,True
100,430,4.3,0.7407281398773193,True
100,430,4.3,1.3587448596954346,False
100,430,4.3,0.5201067924499512,True
100,430,4.3,1.4456439018249512,False
100,430,4.3,1.3785498142242432,False
100,430,4.3,1.5167620182037354,False
100,430,4.3,1.398813009262085,False
100,430,4.3,1.4375100135803223,False
100,430,4.3,1.468489170074463,False
100,430,4.3,1.424072027206421,False
100,430,4.3,1.3956899642944336,False
100,430,4.3,1.4386529922485352,False
100,430,4.3,1.4133329391479492,False
100,430,4.3,0.9172790050506592,True
100,430,4.3,1.428394079208374,False
100,430,4.3,0.5458779335021973,True
100,430,4.3,1.3888869285583496,False
100,430,4.3,1.4027159214019775,False
100,430,4.3,1.5371999740600586,False
100,430,4.3,1.416076898574829,False
100,430,4.3,1.4259779453277588,False
100,430,4.3,0.5326979160308838,True
100,430,4.3,1.440788984298706,False
100,430,4.3,1.406076192855835,False
100,430,4.3,1.4725449085235596,False
100,430,4.3,1.4148061275482178,False
100,430,4.3,1.4586420059204102,False
100,430,4.3,1.419546127319336,False
100,430,4.3,0.8435549736022949,True
100,430,4.3,0.9416050910949707,True
100,430,4.3,1.388503074645996,True
100,430,4.3,1.4391050338745117,False
100,430,4.3,1.3573319911956787,True
100,430,4.3,1.3935132026672363,False
100,430,4.3,1.3661959171295166,False
100,430,4.3,1.4298701286315918,False
100,430,4.3,1.4209439754486084,False
100,430,4.3,1.3893170356750488,False
100,430,4.3,1.383301019668579,False
100,430,4.3,1.4804129600524902,False
100,430,4.3,1.427734136581421,False
100,430,4.3,1.3594958782196045,False
100,430,4.3,1.4096720218658447,False
100,430,4.3,1.4627130031585693,False
100,430,4.3,1.4175591468811035,False
100,430,4.3,1.4309380054473877,False
100,430,4.3,1.4520809650421143,False
100,430,4.3,1.01226806640625,True
100,430,4.3,1.4246599674224854,False
100,430,4.3,1.443936824798584,False
100,430,4.3,1.4293370246887207,False
100,430,4.3,0.9288170337677002,True
100,430,4.3,1.400299072265625,False
100,430,4.3,1.3844561576843262,False
100,430,4.3,1.4762279987335205,False
100,430,4.3,1.4112210273742676,False
100,430,4.3,1.2551169395446777,True
100,430,4.3,1.4199490547180176,False
100,430,4.3,1.4071919918060303,False
100,430,4.3,1.499394178390503,False
100,430,4.3,1.410944938659668,False
100,430,4.3,1.3944358825683594,False
100,430,4.3,1.3745310306549072,False
100,430,4.3,1.3988049030303955,False
100,430,4.3,1.0980730056762695,True
100,430,4.3,0.6175241470336914,True
100,430,4.3,1.357886791229248,False
100,430,4.3,0.25896191596984863,True
100,430,4.3,1.590116024017334,False
100,430,4.3,1.3942430019378662,False
100,430,4.3,1.4242870807647705,False
100,430,4.3,1.4517669677734375,False
100,430,4.3,1.4892258644104004,False
100,430,4.3,1.4275879859924316,False
100,430,4.3,1.4660999774932861,False
100,430,4.3,1.40156888961792,False
100,430,4.3,1.4940690994262695,False
100,430,4.3,1.5192599296569824,False
100,430,4.3,1.0801188945770264,True
100,430,4.3,1.4257309436798096,False
100,430,4.3,1.4969000816345215,False
100,430,4.3,1.1312170028686523,True
100,430,4.3,1.4554319381713867,False
100,430,4.3,1.560434103012085,False
100,430,4.3,0.4276731014251709,True
100,430,4.3,1.4017860889434814,False
100,430,4.3,1.4015390872955322,False
100,430,4.3,1.4695751667022705,True
100,430,4.3,1.4194700717926025,False
100,430,4.3,1.4341890811920166,False
100,430,4.3,0.5347471237182617,True
100,430,4.3,1.4194769859313965,False
100,430,4.3,1.5953528881072998,False
100,430,4.3,1.4999070167541504,False
100,430,4.3,1.4435269832611084,False
100,430,4.3,1.368602991104126,True
100,430,4.3,1.6048061847686768,False
100,430,4.3,1.454136848449707,False
100,430,4.3,0.28034400939941406,True
100,430,4.3,1.4476890563964844,False
100,430,4.3,1.4210851192474365,False
100,430,4.3,1.498136043548584,False
100,430,4.3,1.5600709915161133,False
100,430,4.3,1.2720868587493896,True
100,430,4.3,1.4546229839324951,False
100,430,4.3,1.4987878799438477,False
100,430,4.3,0.6415610313415527,True
100,430,4.3,1.391136884689331,False
100,430,4.3,1.4965460300445557,False
100,430,4.3,1.4443838596343994,False
100,430,4.3,1.4371399879455566,False
100,430,4.3,1.420320987701416,False
100,430,4.3,1.0586130619049072,True
100,430,4.3,1.5803070068359375,False
100,430,4.3,0.18114304542541504,True
100,430,4.3,0.9980549812316895,True
100,430,4.3,0.5106949806213379,True
100,430,4.3,0.8266170024871826,True
100,430,4.3,1.058225154876709,True
100,430,4.3,0.7065868377685547,True
100,430,4.3,1.0388739109039307,True
100,430,4.3,1.4601290225982666,False
100,430,4.3,1.4456720352172852,False
100,430,4.3,1.4423470497131348,False
100,430,4.3,0.3720719814300537,True
100,430,4.3,1.4582059383392334,False
100,430,4.3,0.9947419166564941,True
100,430,4.3,0.7624020576477051,True
100,430,4.3,0.9019699096679688,True
100,430,4.3,1.4928460121154785,False
100,430,4.3,1.5424048900604248,False
100,430,4.3,1.4109008312225342,False
100,430,4.3,1.440593957901001,False
100,430,4.3,0.9496510028839111,True
100,430,4.3,0.688866138458252,True
100,430,4.3,1.4990699291229248,False
100,430,4.3,1.480881929397583,False
100,430,4.3,1.4608769416809082,False
100,430,4.3,1.4615399837493896,False
100,430,4.3,1.5579628944396973,False
100,430,4.3,1.516847848892212,False
100,430,4.3,1.569490909576416,False
100,430,4.3,1.0345818996429443,True
100,430,4.3,1.4574830532073975,True
100,430,4.3,1.4955329895019531,False
100,430,4.3,1.2699649333953857,True
100,430,4.3,0.9834258556365967,True
100,430,4.3,0.5440959930419922,True
100,430,4.3,1.4775919914245605,False
100,430,4.3,1.5092480182647705,False
100,430,4.3,1.4510860443115234,False
100,430,4.3,1.5322260856628418,False
100,430,4.3,1.5133421421051025,False
100,430,4.3,1.5515642166137695,False
100,430,4.3,1.531045913696289,False
100,430,4.3,1.518834114074707,False
100,430,4.3,1.1185860633850098,True
100,430,4.3,1.4679958820343018,False
100,430,4.3,1.2970211505889893,True
100,430,4.3,1.4975850582122803,False
100,430,4.3,1.0589220523834229,True
100,430,4.3,1.5155699253082275,False
100,430,4.3,1.5520179271697998,False
100,430,4.3,1.5116088390350342,False
100,430,4.3,1.112851858139038,True
100,430,4.3,1.472599983215332,False
100,430,4.3,1.4756929874420166,False
100,430,4.3,0.756274938583374,True
100,430,4.3,1.058439016342163,True
100,430,4.3,1.542207956314087,False
100,430,4.3,1.5374259948730469,False
100,430,4.3,0.9748411178588867,True
100,430,4.3,1.5519611835479736,False
100,430,4.3,0.4517641067504883,True
100,430,4.3,0.9604809284210205,True
100,430,4.3,1.4879629611968994,False
100,430,4.3,1.5081868171691895,False
100,430,4.3,1.529831886291504,False
100,430,4.3,1.5515398979187012,False
100,430,4.3,1.5204508304595947,False
100,430,4.3,0.5388748645782471,True
100,430,4.3,1.4817330837249756,False
100,430,4.3,1.5133180618286133,False
100,430,4.3,1.5479669570922852,False
100,430,4.3,1.5520949363708496,False
100,430,4.3,1.4906480312347412,False
100,430,4.3,1.4938721656799316,False
100,430,4.3,1.585240125656128,False
100,430,4.3,1.474992036819458,False
100,430,4.3,1.4969518184661865,False
100,430,4.3,1.5148069858551025,False
100,430,4.3,1.4824159145355225,False
100,430,4.3,1.522258996963501,False
100,430,4.3,1.5835859775543213,False
100,430,4.3,1.457392930984497,False
100,430,4.3,1.4582231044769287,False
100,430,4.3,1.4612751007080078,False
100,430,4.3,1.5367140769958496,False
100,430,4.3,1.4714889526367188,False
100,430,4.3,0.5868079662322998,True
100,430,4.3,1.5722928047180176,False
100,430,4.3,1.480661153793335,False
100,430,4.3,1.4884700775146484,False
100,430,4.3,1.5085229873657227,False
100,430,4.3,1.5028080940246582,False
100,430,4.3,1.4558780193328857,False
100,430,4.3,1.5726370811462402,False
100,430,4.3,1.48380708694458,False
100,430,4.3,1.452625036239624,False
100,430,4.3,1.4512150287628174,False
100,430,4.3,0.33894801139831543,True
100,430,4.3,0.8815131187438965,True
100,430,4.3,1.5080289840698242,False
100,430,4.3,1.4673759937286377,False
100,430,4.3,1.5518379211425781,False
100,430,4.3,1.4774951934814453,False
100,430,4.3,0.3030660152435303,True
100,430,4.3,0.5404670238494873,True
100,430,4.3,1.4391980171203613,False
100,430,4.3,1.4999189376831055,False
100,430,4.3,0.5412349700927734,True
100,430,4.3,1.5234520435333252,False
100,430,4.3,1.4652678966522217,False
100,430,4.3,1.4175379276275635,False
100,430,4.3,0.6630339622497559,True
100,430,4.3,1.5026259422302246,False
100,430,4.3,0.23543596267700195,True
100,430,4.3,1.5878870487213135,False
100,430,4.3,0.9544448852539062,True
100,430,4.3,1.4411180019378662,False
100,430,4.3,1.4516408443450928,False
100,430,4.3,1.4167680740356445,False
100,430,4.3,1.4503719806671143,False
100,430,4.3,1.5390510559082031,False
100,430,4.3,1.4700510501861572,False
100,430,4.3,1.4647109508514404,False
100,430,4.3,1.5327889919281006,False
100,430,4.3,1.5264060497283936,False
100,430,4.3,1.490591049194336,False
100,430,4.3,1.4982218742370605,False
100,430,4.3,1.431509017944336,False
100,430,4.3,1.4410958290100098,False
100,430,4.3,0.6095170974731445,True
100,430,4.3,1.4529659748077393,False
100,430,4.3,0.8219320774078369,True
100,430,4.3,1.4628198146820068,False
100,430,4.3,1.4065239429473877,False
100,430,4.3,0.636909008026123,True
100,430,4.3,1.4059231281280518,False
100,430,4.3,1.6188039779663086,False
100,430,4.3,1.5353410243988037,False
100,430,4.3,1.2673652172088623,True
100,430,4.3,1.4446029663085938,False
100,430,4.3,1.475142002105713,False
100,430,4.3,1.464172124862671,False
100,430,4.3,1.5174710750579834,False
100,430,4.3,1.5033600330352783,False
100,430,4.3,1.496579885482788,False
100,430,4.3,1.496863842010498,False
100,430,4.3,1.4464569091796875,False
100,430,4.3,1.4388031959533691,False
100,430,4.3,1.4276719093322754,False
100,430,4.3,0.3737490177154541,True
100,430,4.3,1.382507085800171,False
100,430,4.3,1.5456547737121582,False
100,430,4.3,1.4960811138153076,False
100,430,4.3,1.4302120208740234,False
100,430,4.3,1.530534029006958,False
100,430,4.3,1.4978618621826172,False
100,430,4.3,1.4902400970458984,False
100,430,4.3,1.4735548496246338,False
100,430,4.3,1.479468822479248,False
100,430,4.3,1.285768985748291,True
100,430,4.3,1.4552230834960938,False
100,430,4.3,0.21046209335327148,True
100,430,4.3,1.3813869953155518,True
100,430,4.3,0.18944716453552246,True
100,430,4.3,1.4896528720855713,False
100,430,4.3,1.453183889389038,False
100,430,4.3,1.4744610786437988,False
100,430,4.3,0.8825700283050537,True
100,430,4.3,1.463381052017212,False
100,430,4.3,1.4865658283233643,False
100,430,4.3,1.5881009101867676,False
100,430,4.3,1.5014100074768066,False
100,430,4.3,1.4744150638580322,False
100,430,4.3,1.5091509819030762,False
100,430,4.3,1.4731459617614746,False
100,430,4.3,1.5140001773834229,False
100,430,4.3,1.5263450145721436,False
100,430,4.3,1.5344741344451904,False
100,430,4.3,1.4685680866241455,False
100,430,4.3,1.3923020362854004,False
100,430,4.3,1.4164960384368896,False
100,430,4.3,1.4402740001678467,False
100,430,4.3,1.5790209770202637,True
100,430,4.3,1.464012861251831,False
100,430,4.3,1.4893009662628174,False
100,430,4.3,1.0414001941680908,True
100,430,4.3,1.4423580169677734,False
100,430,4.3,1.491075038909912,False
100,430,4.3,1.4503810405731201,False
100,430,4.3,1.4291999340057373,False
100,430,4.3,1.5406520366668701,False
100,430,4.3,1.4715361595153809,False
100,430,4.3,1.4290070533752441,False
100,430,4.3,1.5763850212097168,False
100,430,4.3,1.4607510566711426,False
100,430,4.3,0.23956704139709473,True
100,430,4.3,1.507340908050537,False
100,430,4.3,1.4368212223052979,False
100,430,4.3,1.4352898597717285,False
100,430,4.3,1.5203068256378174,False
100,430,4.3,1.5263450145721436,False
100,430,4.3,1.4574317932128906,True
100,430,4.3,0.7146749496459961,True
100,430,4.3,1.5199799537658691,False
100,430,4.3,1.4610471725463867,False
100,430,4.3,1.485821008682251,False
100,430,4.3,1.491621971130371,False
100,430,4.3,1.5823330879211426,False
100,430,4.3,0.6921119689941406,True
100,430,4.3,1.5289928913116455,False
100,430,4.3,1.4527161121368408,False
100,430,4.3,1.486083984375,False
100,430,4.3,1.4533710479736328,False
100,430,4.3,1.5197927951812744,False
100,430,4.3,1.4961891174316406,False
100,430,4.3,1.4557931423187256,False
100,430,4.3,1.5026769638061523,False
100,430,4.3,1.4265720844268799,False
100,430,4.3,1.4210360050201416,False
100,430,4.3,1.4930369853973389,False
100,430,4.3,1.4522709846496582,False
100,430,4.3,1.472580909729004,False
100,430,4.3,1.535006046295166,False
100,430,4.3,1.4266629219055176,True
100,430,4.3,1.5448718070983887,False
100,430,4.3,1.515376091003418,False
100,430,4.3,1.4621989727020264,False
100,430,4.3,0.9193439483642578,True
100,430,4.3,1.1688001155853271,True
100,430,4.3,0.4847300052642822,True
100,430,4.3,1.5184459686279297,False
100,430,4.3,0.39250802993774414,True
100,430,4.3,1.4430129528045654,False
100,430,4.3,0.6253998279571533,True
100,430,4.3,1.490760087966919,False
100,430,4.3,0.7595090866088867,True
100,430,4.3,1.467696189880371,False
100,430,4.3,1.578171968460083,False
100,430,4.3,1.4767811298370361,False
100,430,4.3,1.4429140090942383,False
100,430,4.3,1.541274070739746,False
100,430,4.3,1.4150018692016602,False
100,430,4.3,1.4430358409881592,False
100,430,4.3,0.32326793670654297,True
100,430,4.3,0.8779211044311523,True
100,430,4.3,1.4427189826965332,False
100,430,4.3,1.4962739944458008,False
100,430,4.3,0.8993420600891113,True
100,430,4.3,1.4877290725708008,False
100,430,4.3,1.4265449047088623,False
100,430,4.3,1.438040018081665,False
100,430,4.3,1.4700758457183838,False
100,430,4.3,1.3829939365386963,False
100,430,4.3,0.3882899284362793,True
100,430,4.3,0.8592038154602051,True
100,430,4.3,1.4899089336395264,False
100,430,4.3,0.20908308029174805,True
100,430,4.3,1.3870618343353271,False
100,430,4.3,0.997046947479248,True
100,430,4.3,1.0562269687652588,True
100,430,4.3,1.4400179386138916,False
100,430,4.3,1.430083990097046,False
100,430,4.3,1.4208250045776367,False
100,430,4.3,1.5026578903198242,False
100,430,4.3,1.4372668266296387,False
100,430,4.3,1.4144608974456787,False
100,430,4.3,1.5202670097351074,False
100,430,4.3,1.5150258541107178,False
100,430,4.3,1.4457221031188965,False
100,430,4.3,1.398636817932129,False
100,430,4.3,1.425401210784912,False
100,430,4.3,1.4278099536895752,False
100,430,4.3,1.4311919212341309,False
100,430,4.3,1.4685230255126953,False
100,430,4.3,1.4596021175384521,False
100,430,4.3,1.3975191116333008,False
100,430,4.3,1.0933609008789062,True
100,430,4.3,1.4144880771636963,False
100,430,4.3,1.474567174911499,False
100,430,4.3,1.4584641456604004,False
100,430,4.3,1.5199980735778809,False
100,430,4.3,0.39948487281799316,True
100,430,4.3,0.529263973236084,True
100,430,4.3,1.479780912399292,False
100,430,4.3,1.4518401622772217,False
100,430,4.3,1.4105870723724365,False
100,430,4.3,1.4051270484924316,False
100,430,4.3,1.3854670524597168,False
100,430,4.3,1.2731080055236816,True
100,430,4.3,1.3848648071289062,False
100,430,4.3,1.4674420356750488,False
100,430,4.3,1.4448068141937256,False
100,430,4.3,1.4439539909362793,False
100,430,4.3,1.5107309818267822,False
100,430,4.3,1.5227348804473877,False
100,430,4.3,1.4778950214385986,False
100,430,4.3,1.4432110786437988,False
100,430,4.3,1.5057461261749268,False
100,430,4.3,1.1335570812225342,True
100,430,4.3,1.5181481838226318,False
100,430,4.3,1.4039199352264404,False
100,430,4.3,1.3591420650482178,True
100,430,4.3,1.2666120529174805,True
100,430,4.3,0.446897029876709,True
100,430,4.3,1.4416289329528809,False
100,430,4.3,1.373349905014038,False
100,430,4.3,0.42580389976501465,True
100,430,4.3,0.36455488204956055,True
100,430,4.3,1.4217321872711182,False
100,430,4.3,1.434147834777832,False
100,430,4.3,1.477173089981079,False
100,430,4.3,1.4047901630401611,False
100,430,4.3,1.4850211143493652,False
100,430,4.3,1.3060669898986816,True
100,430,4.3,1.3921539783477783,False
100,430,4.3,1.423691987991333,False
100,430,4.3,1.4198861122131348,False
100,430,4.3,0.4541921615600586,True
100,430,4.3,0.45198893547058105,True
100,430,4.3,1.4359679222106934,False
100,430,4.3,1.30759596824646,True
100,430,4.3,1.4062421321868896,False
100,430,4.3,1.3887948989868164,False
100,430,4.3,1.3408992290496826,True
100,430,4.3,1.4328029155731201,False
100,430,4.3,0.23512601852416992,True
100,430,4.3,0.3733079433441162,True
100,430,4.3,1.4819660186767578,False
100,430,4.3,0.4776120185852051,True
100,430,4.3,1.4414398670196533,False
100,430,4.3,1.4836790561676025,False
100,430,4.3,1.4210948944091797,False
100,430,4.3,0.7757492065429688,True
100,430,4.3,1.4765172004699707,False
100,430,4.3,1.458726167678833,False
100,430,4.3,1.5028538703918457,False
100,430,4.3,1.4238309860229492,False
100,430,4.3,1.4445991516113281,False
100,430,4.3,1.4256670475006104,False
100,430,4.3,1.4602458477020264,False
100,430,4.3,1.4416370391845703,False
100,430,4.3,1.4164819717407227,False
100,430,4.3,1.4351649284362793,False
100,430,4.3,1.4886541366577148,False
100,430,4.3,1.4531521797180176,False
100,430,4.3,1.4644889831542969,False
100,430,4.3,1.4530789852142334,False
100,430,4.3,1.4294610023498535,False
100,430,4.3,1.4270849227905273,False
100,430,4.3,0.9062628746032715,True
100,430,4.3,1.4288530349731445,False
100,430,4.3,1.4251670837402344,False
100,430,4.3,1.4461610317230225,False
100,430,4.3,1.4070639610290527,False
100,430,4.3,1.4373199939727783,False
100,430,4.3,1.5043690204620361,False
100,430,4.3,1.4060170650482178,True
100,430,4.3,1.4998469352722168,False
100,430,4.3,1.370784044265747,False
100,430,4.3,0.1397709846496582,True
100,430,4.3,1.4617249965667725,False
100,430,4.3,1.6562161445617676,True
100,430,4.3,0.24861502647399902,True
100,430,4.3,1.4918270111083984,False
100,430,4.3,1.4000070095062256,False
100,430,4.3,1.022038221359253,True
100,430,4.3,1.4192101955413818,False
100,430,4.3,1.2995679378509521,True
100,430,4.3,0.4760470390319824,True
100,430,4.3,0.2368030548095703,True
100,430,4.3,1.4662411212921143,False
100,430,4.3,1.4664089679718018,False
100,430,4.3,1.4910948276519775,False
100,430,4.3,1.4193129539489746,False
100,430,4.3,1.4524710178375244,False
100,430,4.3,1.4181900024414062,False
100,430,4.3,1.4435760974884033,False
100,430,4.3,1.4766738414764404,False
100,430,4.3,1.4279417991638184,False
100,430,4.3,1.4260070323944092,False
100,430,4.3,1.452444076538086,False
100,430,4.3,1.515476942062378,False
100,430,4.3,1.4367589950561523,False
100,430,4.3,0.6047470569610596,True
100,430,4.3,0.7944779396057129,True
100,430,4.3,1.6682658195495605,False
100,430,4.3,1.4534211158752441,False
100,430,4.3,1.4412858486175537,False
100,430,4.3,1.4350841045379639,False
100,430,4.3,0.2534148693084717,True
100,430,4.3,1.5528099536895752,False
100,430,4.3,1.43914794921875,False
100,430,4.3,1.4453120231628418,False
100,430,4.3,1.473816156387329,False
100,430,4.3,0.8803460597991943,True
100,430,4.3,1.541106939315796,False
100,430,4.3,1.5584619045257568,False
100,430,4.3,1.562518835067749,False
100,430,4.3,1.5013821125030518,False
100,430,4.3,1.040539026260376,True
100,430,4.3,1.4672398567199707,False
100,430,4.3,1.4764180183410645,False
100,430,4.3,1.581894874572754,False
100,430,4.3,1.4582390785217285,False
100,430,4.3,0.8346209526062012,True
100,430,4.3,0.30907702445983887,True
100,430,4.3,1.401695966720581,False
100,430,4.3,1.466413974761963,False
100,430,4.3,1.4674170017242432,False
100,430,4.3,1.4043538570404053,False
100,430,4.3,1.4863841533660889,False
100,430,4.3,0.24270892143249512,True
100,430,4.3,1.4139728546142578,False
100,430,4.3,1.0759828090667725,True
100,430,4.3,1.4366528987884521,False
100,430,4.3,1.4213488101959229,False
100,430,4.3,1.4128749370574951,False
100,430,4.3,0.5783679485321045,True
100,430,4.3,1.4420239925384521,False
100,430,4.3,1.4320940971374512,False
100,430,4.3,1.1443729400634766,True
100,430,4.3,1.4186608791351318,False
100,430,4.3,1.4674439430236816,False
100,430,4.3,1.4793970584869385,False
100,430,4.3,1.4175469875335693,False
100,430,4.3,1.4579720497131348,False
100,430,4.3,1.417490005493164,False
100,430,4.3,1.3006188869476318,True
100,430,4.3,1.4631719589233398,False
100,430,4.3,0.6147661209106445,True
100,430,4.3,1.4367291927337646,False
100,430,4.3,1.4061100482940674,False
100,430,4.3,1.4670231342315674,False
100,430,4.3,1.484133005142212,False
100,430,4.3,1.460784912109375,False
100,430,4.3,0.49045300483703613,True
100,430,4.3,1.436371088027954,False
100,430,4.3,0.6202569007873535,True
100,430,4.3,1.428231954574585,False
100,430,4.3,1.4292559623718262,False
100,430,4.3,1.4769971370697021,False
100,430,4.3,1.4237208366394043,False
100,430,4.3,1.494128942489624,False
100,430,4.3,1.4007568359375,False
100,430,4.3,1.4003288745880127,False
100,430,4.3,1.4505810737609863,False
100,430,4.3,1.3576149940490723,True
100,430,4.3,1.4285261631011963,False
100,430,4.3,1.4698619842529297,False
100,430,4.3,1.067445993423462,True
100,430,4.3,1.4260239601135254,False
100,430,4.3,1.4785430431365967,False
100,430,4.3,1.4242630004882812,False
100,430,4.3,1.4317071437835693,False
100,430,4.3,1.4584600925445557,False
100,430,4.3,1.4653420448303223,False
100,430,4.3,1.4750499725341797,False
100,430,4.3,1.394395112991333,False
100,430,4.3,1.4379889965057373,False
100,430,4.3,1.4784770011901855,False
100,430,4.3,1.4468178749084473,False
100,430,4.3,1.516469955444336,False
100,430,4.3,0.4240710735321045,True
100,430,4.3,1.4588730335235596,False
100,430,4.3,1.458761215209961,False
100,430,4.3,0.5305290222167969,True
100,430,4.3,1.4341750144958496,False
100,430,4.3,1.3960521221160889,False
100,430,4.3,0.9411060810089111,True
100,430,4.3,1.4065608978271484,False
100,430,4.3,1.483778953552246,False
100,430,4.3,0.4750030040740967,True
100,430,4.3,1.419543981552124,False
100,430,4.3,1.450538158416748,False
100,430,4.3,0.8148288726806641,True
100,430,4.3,1.4645709991455078,False
100,430,4.3,0.7591102123260498,True
100,430,4.3,1.091360092163086,True
100,430,4.3,0.33764219284057617,True
100,430,4.3,1.1598339080810547,True
100,430,4.3,1.477626085281372,False
100,430,4.3,1.460024118423462,False
100,430,4.3,1.4342238903045654,False
100,430,4.3,1.4635260105133057,False
100,430,4.3,1.4274179935455322,False
100,430,4.3,1.2684619426727295,True
100,430,4.3,0.26606106758117676,True
100,430,4.3,1.470703125,False
100,430,4.3,1.5412659645080566,False
100,430,4.3,1.4816310405731201,False
100,430,4.3,1.4352819919586182,False
100,430,4.3,1.1028649806976318,True
100,430,4.3,1.3873391151428223,False
100,430,4.3,1.42079496383667,False
100,430,4.3,1.4590981006622314,False
100,430,4.3,0.4431190490722656,True
100,430,4.3,1.4180169105529785,False
100,430,4.3,0.38287901878356934,True
100,430,4.3,1.4743990898132324,False
100,430,4.3,1.463850975036621,False
100,430,4.3,1.0404889583587646,True
100,430,4.3,0.8009030818939209,True
100,430,4.3,1.4551000595092773,False
100,430,4.3,1.3894858360290527,False
100,430,4.3,1.4396600723266602,False
100,430,4.3,1.3954479694366455,False
100,430,4.3,1.4711229801177979,False
100,430,4.3,1.4546561241149902,False
100,430,4.3,0.9368240833282471,True
100,430,4.3,1.4300260543823242,False
100,430,4.3,1.4129188060760498,False
100,430,4.3,1.4311721324920654,False
100,430,4.3,1.4182019233703613,False
100,430,4.3,1.4954469203948975,False
100,430,4.3,1.4885900020599365,False
100,430,4.3,1.44917893409729,False
100,430,4.3,1.44309401512146,False
100,430,4.3,1.4702589511871338,False
100,430,4.3,0.5788769721984863,True
100,430,4.3,1.4358739852905273,False
100,430,4.3,1.4558601379394531,False
100,430,4.3,1.4639501571655273,False
100,430,4.3,0.5406990051269531,True
100,430,4.3,1.494365930557251,False
100,430,4.3,1.5436251163482666,False
100,430,4.3,0.3296380043029785,True
100,430,4.3,0.17622113227844238,True
100,430,4.3,1.4309179782867432,False
100,430,4.3,1.4436678886413574,False
100,430,4.3,0.5895941257476807,True
100,430,4.3,1.517228126525879,False
100,430,4.3,0.7525959014892578,True
100,430,4.3,1.5082931518554688,False
100,430,4.3,1.5182697772979736,False
100,430,4.3,1.4429709911346436,False
100,430,4.3,1.395637035369873,False
100,430,4.3,1.477607011795044,False
100,430,4.3,1.4276058673858643,False
100,430,4.3,0.4998359680175781,True
100,430,4.3,1.4404480457305908,False
100,430,4.3,1.4660120010375977,False
100,430,4.3,0.8415660858154297,True
100,430,4.3,1.4646790027618408,False
100,430,4.3,1.482151985168457,False
100,430,4.3,1.5199899673461914,False
100,430,4.3,0.3568689823150635,True
100,430,4.3,1.4232819080352783,False
100,430,4.3,1.4325401782989502,False
100,430,4.3,0.5489599704742432,True
100,430,4.3,1.4359900951385498,False
100,430,4.3,1.4436259269714355,False
100,430,4.3,1.4253020286560059,False
100,430,4.3,1.390172004699707,False
100,430,4.3,1.2468311786651611,True
100,430,4.3,1.3967430591583252,False
100,430,4.3,1.4098880290985107,False
100,430,4.3,1.3832740783691406,False
100,430,4.3,1.012174129486084,True
100,430,4.3,1.4290070533752441,False
100,430,4.3,1.4751250743865967,False
100,430,4.3,1.4852888584136963,False
100,430,4.3,1.4449000358581543,False
100,430,4.3,0.3035440444946289,True
100,430,4.3,1.4565742015838623,False
100,430,4.3,1.5064799785614014,False
100,430,4.3,1.5008628368377686,False
100,430,4.3,1.49698805809021,False
100,430,4.3,0.6809110641479492,True
100,430,4.3,1.4324619770050049,False
100,430,4.3,0.26130008697509766,True
100,430,4.3,1.4707469940185547,False
100,430,4.3,1.4965128898620605,False
100,430,4.3,0.6276860237121582,True
100,430,4.3,0.23629283905029297,True
100,430,4.3,1.4775550365447998,False
100,430,4.3,1.2668070793151855,True
100,430,4.3,1.4579050540924072,False
100,430,4.3,1.4506909847259521,False
100,430,4.3,1.460273027420044,False
100,430,4.3,1.4261810779571533,False
100,430,4.3,1.4563608169555664,False
100,430,4.3,1.4474749565124512,False
100,430,4.3,1.462651014328003,False
100,430,4.3,1.2619729042053223,True
100,430,4.3,1.4759609699249268,False
100,430,4.3,1.4297049045562744,False
100,430,4.3,1.4519920349121094,False
100,430,4.3,1.49891996383667,False
100,430,4.3,0.3983628749847412,True
100,430,4.3,0.5200729370117188,True
100,430,4.3,1.4459421634674072,False
100,430,4.3,0.4648630619049072,True
100,430,4.3,1.447192907333374,False
100,430,4.3,1.4940149784088135,False
100,430,4.3,1.550581932067871,False
100,430,4.3,1.463974952697754,False
100,430,4.3,1.442126989364624,False
100,430,4.3,1.4657950401306152,False
100,430,4.3,1.4619510173797607,False
100,430,4.3,1.5269370079040527,False
100,430,4.3,0.8687610626220703,True
100,430,4.3,1.4522390365600586,False
100,430,4.3,1.3996469974517822,False
100,430,4.3,1.4483048915863037,False
100,430,4.3,1.431429147720337,False
100,430,4.3,1.4414100646972656,False
100,430,4.3,1.4947900772094727,False
100,430,4.3,1.4789760112762451,False
100,430,4.3,1.4567251205444336,False
100,430,4.3,0.1521768569946289,True
100,430,4.3,0.37030506134033203,True
100,430,4.3,1.5561408996582031,False
100,430,4.3,1.5832099914550781,False
100,430,4.3,0.976970911026001,True
100,430,4.3,1.4831888675689697,False
100,430,4.3,1.466081142425537,False
100,430,4.3,1.4677939414978027,False
100,430,4.3,1.4661591053009033,False
100,430,4.3,1.4436700344085693,False
100,430,4.3,1.5078020095825195,False
100,430,4.3,1.5384140014648438,False
100,430,4.3,1.4333140850067139,False
100,430,4.3,1.4449667930603027,False
100,430,4.3,1.2050879001617432,True
100,430,4.3,0.9958980083465576,True
100,430,4.3,1.4448480606079102,False
100,430,4.3,1.4580659866333008,False
100,430,4.3,1.4516160488128662,False
100,430,4.3,0.6707849502563477,True
100,430,4.3,1.5738451480865479,False
100,430,4.3,1.5420379638671875,False
100,430,4.3,0.7485918998718262,True
100,430,4.3,1.3170950412750244,True
100,430,4.3,1.0227210521697998,True
100,430,4.3,1.4576308727264404,False
100,430,4.3,0.7453389167785645,True
100,430,4.3,1.4358139038085938,False
100,430,4.3,1.4611279964447021,False
100,430,4.3,1.4431769847869873,False
100,430,4.3,1.4151098728179932,True
100,430,4.3,1.4383771419525146,False
100,430,4.3,1.033531904220581,True
100,430,4.3,0.4978039264678955,True
100,430,4.3,1.5102601051330566,False
100,430,4.3,1.6538660526275635,False
100,430,4.3,1.0209109783172607,True
100,430,4.3,1.4173939228057861,False
100,430,4.3,1.5093491077423096,False
100,430,4.3,1.4778459072113037,False
100,430,4.3,0.5836470127105713,True
100,430,4.3,1.4274821281433105,False
100,430,4.3,1.460090160369873,False
100,430,4.3,1.4256329536437988,False
125,538,4.304,1.8000600337982178,False
125,538,4.304,1.8737900257110596,False
125,538,4.304,1.7914252281188965,False
125,538,4.304,1.7984569072723389,False
125,538,4.304,0.866595983505249,True
125,538,4.304,1.5465872287750244,True
125,538,4.304,1.7846779823303223,False
125,538,4.304,1.7718589305877686,False
125,538,4.304,1.7541899681091309,True
125,538,4.304,1.7851080894470215,False
125,538,4.304,1.766564130783081,False
125,538,4.304,1.7770838737487793,False
125,538,4.304,1.780663013458252,False
125,538,4.304,1.8463389873504639,False
125,538,4.304,2.0390851497650146,False
125,538,4.304,1.8634040355682373,False
125,538,4.304,1.8096849918365479,False
125,538,4.304,1.7818350791931152,False
125,538,4.304,1.7681219577789307,False
125,538,4.304,0.8887040615081787,True
125,538,4.304,1.1877119541168213,True
125,538,4.304,1.8395891189575195,False
125,538,4.304,1.7781720161437988,False
125,538,4.304,1.7693328857421875,False
125,538,4.304,1.7674500942230225,False
125,538,4.304,1.9575090408325195,False
125,538,4.304,1.8196711540222168,False
125,538,4.304,1.899055004119873,False
125,538,4.304,1.8510029315948486,False
125,538,4.304,0.7588310241699219,True
125,538,4.304,1.774277925491333,False
125,538,4.304,1.7722668647766113,False
125,538,4.304,1.7223529815673828,False
125,538,4.304,1.7752790451049805,False
125,538,4.304,1.8294401168823242,False
125,538,4.304,1.794050931930542,False
125,538,4.304,1.8204622268676758,False
125,538,4.304,1.8463499546051025,False
125,538,4.304,1.8683490753173828,False
125,538,4.304,1.8083770275115967,False
125,538,4.304,1.8196101188659668,False
125,538,4.304,1.835953950881958,False
125,538,4.304,1.064396858215332,True
125,538,4.304,1.771111011505127,False
125,538,4.304,1.7903409004211426,False
125,538,4.304,0.4664280414581299,True
125,538,4.304,0.9591460227966309,True
125,538,4.304,1.77593994140625,False
125,538,4.304,1.8113539218902588,False
125,538,4.304,1.4531340599060059,True
125,538,4.304,1.7738361358642578,False
125,538,4.304,1.8092341423034668,False
125,538,4.304,1.7967729568481445,False
125,538,4.304,1.7759199142456055,False
125,538,4.304,1.7265491485595703,False
125,538,4.304,1.799353837966919,False
125,538,4.304,1.744028091430664,False
125,538,4.304,1.8697319030761719,False
125,538,4.304,1.6762750148773193,False
125,538,4.304,1.7781829833984375,False
125,538,4.304,1.7625410556793213,False
125,538,4.304,1.7538928985595703,False
125,538,4.304,1.7334098815917969,False
125,538,4.304,1.7424111366271973,False
125,538,4.304,1.690209150314331,True
125,538,4.304,1.6927440166473389,False
125,538,4.304,1.5826787948608398,True
125,538,4.304,1.8181331157684326,False
125,538,4.304,0.528419017791748,True
125,538,4.304,1.0654220581054688,True
125,538,4.304,1.7626290321350098,False
125,538,4.304,1.694370985031128,False
125,538,4.304,1.7697219848632812,False
125,538,4.304,1.7312648296356201,False
125,538,4.304,1.9048302173614502,False
125,538,4.304,1.6912400722503662,False
125,538,4.304,1.7351319789886475,False
125,538,4.304,1.8065910339355469,False
125,538,4.304,1.7902820110321045,False
125,538,4.304,1.7648391723632812,False
125,538,4.304,1.8571269512176514,False
125,538,4.304,1.7386131286621094,False
125,538,4.304,1.7535438537597656,False
125,538,4.304,1.7298479080200195,False
125,538,4.304,0.7614338397979736,True
125,538,4.304,1.7555620670318604,False
125,538,4.304,1.7283728122711182,False
125,538,4.304,1.7744200229644775,False
125,538,4.304,1.8102068901062012,False
125,538,4.304,1.7188830375671387,False
125,538,4.304,1.726241111755371,False
125,538,4.304,1.8506200313568115,False
125,538,4.304,1.773941993713379,False
125,538,4.304,1.8319878578186035,False
125,538,4.304,1.7238738536834717,False
125,538,4.304,1.7057509422302246,False
125,538,4.304,1.7715630531311035,False
125,538,4.304,1.915208101272583,False
125,538,4.304,0.8868310451507568,True
125,538,4.304,1.7412738800048828,False
150,645,4.3,2.0789551734924316,False
150,645,4.3,2.0090889930725098,False
150,645,4.3,2.130686044692993,False
150,645,4.3,2.5222299098968506,False
150,645,4.3,2.091284990310669,False
150,645,4.3,2.104459047317505,False
150,645,4.3,2.1121349334716797,False
150,645,4.3,2.1615049839019775,False
150,645,4.3,2.1542508602142334,False
150,645,4.3,2.172092914581299,False
150,645,4.3,2.100533962249756,False
150,645,4.3,1.020339012145996,True
150,645,4.3,2.1031880378723145,False
150,645,4.3,2.076184034347534,True
150,645,4.3,2.0899250507354736,False
150,645,4.3,2.2278409004211426,False
150,645,4.3,2.4564740657806396,False
150,645,4.3,2.1453990936279297,False
150,645,4.3,2.020401954650879,True
150,645,4.3,2.1811649799346924,False
150,645,4.3,2.1734800338745117,False
150,645,4.3,2.0986881256103516,False
150,645,4.3,2.1077210903167725,False
150,645,4.3,2.064275026321411,False
150,645,4.3,2.2307281494140625,False
150,645,4.3,2.167661190032959,False
150,645,4.3,2.061073064804077,False
150,645,4.3,2.182574987411499,False
150,645,4.3,2.206166982650757,False
150,645,4.3,2.1000280380249023,False
150,645,4.3,2.1325700283050537,False
150,645,4.3,2.1332170963287354,False
150,645,4.3,2.0999388694763184,False
150,645,4.3,2.065009117126465,False
150,645,4.3,2.168670892715454,False
150,645,4.3,2.1287569999694824,False
150,645,4.3,2.3526101112365723,False
150,645,4.3,2.3547370433807373,False
150,645,4.3,2.119072914123535,False
150,645,4.3,2.399523973464966,False
150,645,4.3,2.12267804145813,False
150,645,4.3,0.8413779735565186,True
150,645,4.3,2.12847900390625,False
150,645,4.3,2.098551034927368,False
150,645,4.3,2.259822130203247,False
150,645,4.3,2.1671090126037598,False
150,645,4.3,2.343183994293213,False
150,645,4.3,2.1071059703826904,False
150,645,4.3,2.191779851913452,False
150,645,4.3,2.0766870975494385,False
150,645,4.3,2.107409954071045,False
150,645,4.3,2.0588459968566895,False
150,645,4.3,2.074399948120117,False
150,645,4.3,2.0696969032287598,False
150,645,4.3,2.1452138423919678,False
150,645,4.3,2.141062021255493,False
150,645,4.3,2.0184731483459473,False
150,645,4.3,2.170414924621582,False
150,645,4.3,2.1132869720458984,False
150,645,4.3,2.1251070499420166,False
150,645,4.3,2.3816840648651123,False
150,645,4.3,2.1163198947906494,False
150,645,4.3,2.1580488681793213,False
150,645,4.3,1.6039998531341553,True
150,645,4.3,2.0920021533966064,False
150,645,4.3,2.1416468620300293,False
150,645,4.3,2.1687300205230713,False
150,645,4.3,2.114205837249756,False
150,645,4.3,2.129434108734131,False
150,645,4.3,2.1279029846191406,False
150,645,4.3,2.1823740005493164,False
150,645,4.3,2.179979085922241,False
150,645,4.3,2.2550151348114014,False
150,645,4.3,2.1514389514923096,False
150,645,4.3,2.0873889923095703,False
150,645,4.3,2.078772783279419,False
150,645,4.3,2.1585021018981934,False
150,645,4.3,2.1452369689941406,False
150,645,4.3,2.1136460304260254,False
150,645,4.3,1.8858790397644043,True
150,645,4.3,1.612464189529419,True
150,645,4.3,2.102976083755493,False
150,645,4.3,2.1074419021606445,False
150,645,4.3,2.1079158782958984,False
150,645,4.3,2.1203582286834717,False
150,645,4.3,2.116533041000366,False
150,645,4.3,1.4454331398010254,True
150,645,4.3,2.180330991744995,False
150,645,4.3,2.173206090927124,False
150,645,4.3,2.251007080078125,False
150,645,4.3,2.147456169128418,False
150,645,4.3,2.1109039783477783,False
150,645,4.3,2.073659896850586,False
150,645,4.3,2.1302921772003174,False
150,645,4.3,2.0610320568084717,False
150,645,4.3,2.131627082824707,False
150,645,4.3,2.115325927734375,False
150,645,4.3,2.1062819957733154,False
150,645,4.3,2.393602132797241,False
150,645,4.3,2.130375862121582,False
175,753,4.3028571428571425,2.5274908542633057,False
175,753,4.3028571428571425,2.4321329593658447,False
175,753,4.3028571428571425,2.7108511924743652,False
175,753,4.3028571428571425,1.6429858207702637,True
175,753,4.3028571428571425,2.359092950820923,False
175,753,4.3028571428571425,2.4616639614105225,False
175,753,4.3028571428571425,2.4716289043426514,False
175,753,4.3028571428571425,2.407686948776245,False
175,753,4.3028571428571425,2.453606128692627,False
175,753,4.3028571428571425,2.4899590015411377,False
175,753,4.3028571428571425,1.8641581535339355,True
175,753,4.3028571428571425,2.575651168823242,False
175,753,4.3028571428571425,2.477905035018921,False
175,753,4.3028571428571425,2.4946649074554443,False
175,753,4.3028571428571425,2.5018348693847656,False
175,753,4.3028571428571425,2.4075610637664795,False
175,753,4.3028571428571425,2.4203851222991943,False
175,753,4.3028571428571425,2.507107973098755,False
175,753,4.3028571428571425,2.5022048950195312,False
175,753,4.3028571428571425,2.455618143081665,False
175,753,4.3028571428571425,2.463536024093628,False
175,753,4.3028571428571425,2.424154043197632,False
175,753,4.3028571428571425,2.52130389213562,False
175,753,4.3028571428571425,2.5466599464416504,False
175,753,4.3028571428571425,2.5112388134002686,False
175,753,4.3028571428571425,2.439668893814087,False
175,753,4.3028571428571425,2.4095780849456787,False
175,753,4.3028571428571425,2.395768880844116,False
175,753,4.3028571428571425,2.391810894012451,False
175,753,4.3028571428571425,2.390109062194824,False
175,753,4.3028571428571425,2.5191538333892822,False
175,753,4.3028571428571425,2.4736380577087402,False
175,753,4.3028571428571425,2.472198963165283,False
175,753,4.3028571428571425,1.569469928741455,True
175,753,4.3028571428571425,2.4740219116210938,False
175,753,4.3028571428571425,2.59238600730896,False
175,753,4.3028571428571425,2.4295899868011475,False
175,753,4.3028571428571425,2.3935441970825195,False
175,753,4.3028571428571425,2.4671318531036377,False
175,753,4.3028571428571425,2.504439115524292,False
175,753,4.3028571428571425,2.5329248905181885,False
175,753,4.3028571428571425,2.4688351154327393,False
175,753,4.3028571428571425,2.520951986312866,False
175,753,4.3028571428571425,2.6117680072784424,False
175,753,4.3028571428571425,2.504215955734253,False
175,753,4.3028571428571425,2.446108818054199,False
175,753,4.3028571428571425,2.5027740001678467,False
175,753,4.3028571428571425,2.417448043823242,False
175,753,4.3028571428571425,2.4104158878326416,False
175,753,4.3028571428571425,2.397037982940674,False
175,753,4.3028571428571425,2.484708786010742,False
175,753,4.3028571428571425,2.5750880241394043,False
175,753,4.3028571428571425,2.409899950027466,False
175,753,4.3028571428571425,2.4958319664001465,False
175,753,4.3028571428571425,2.5046350955963135,False
175,753,4.3028571428571425,2.4071309566497803,False
175,753,4.3028571428571425,2.469874858856201,False
175,753,4.3028571428571425,2.6088900566101074,False
175,753,4.3028571428571425,2.4291439056396484,False
175,753,4.3028571428571425,2.386768102645874,False
175,753,4.3028571428571425,2.481050968170166,False
175,753,4.3028571428571425,2.5093538761138916,False
175,753,4.3028571428571425,2.46582293510437,False
175,753,4.3028571428571425,2.4395880699157715,False
175,753,4.3028571428571425,2.474755048751831,False
175,753,4.3028571428571425,2.5104808807373047,False
175,753,4.3028571428571425,2.5910351276397705,False
175,753,4.3028571428571425,2.456968069076538,False
175,753,4.3028571428571425,2.561514139175415,False
175,753,4.3028571428571425,2.5242230892181396,False
175,753,4.3028571428571425,2.420001983642578,False
175,753,4.3028571428571425,2.422646999359131,False
175,753,4.3028571428571425,1.26472806930542,True
175,753,4.3028571428571425,2.4351871013641357,False
175,753,4.3028571428571425,2.475404977798462,False
175,753,4.3028571428571425,2.5644359588623047,False
175,753,4.3028571428571425,2.414681911468506,False
175,753,4.3028571428571425,2.509737968444824,False
175,753,4.3028571428571425,2.53053617477417,False
175,753,4.3028571428571425,2.4415171146392822,False
175,753,4.3028571428571425,2.4888439178466797,False
175,753,4.3028571428571425,2.4535930156707764,False
175,753,4.3028571428571425,2.471076011657715,False
175,753,4.3028571428571425,1.6138720512390137,True
175,753,4.3028571428571425,2.743561029434204,False
175,753,4.3028571428571425,2.68835186958313,False
175,753,4.3028571428571425,2.6068317890167236,False
175,753,4.3028571428571425,2.545285940170288,False
175,753,4.3028571428571425,2.4295670986175537,False
175,753,4.3028571428571425,2.4810872077941895,False
175,753,4.3028571428571425,2.448180913925171,False
175,753,4.3028571428571425,2.483480930328369,False
175,753,4.3028571428571425,2.4127659797668457,False
175,753,4.3028571428571425,2.45078706741333,False
175,753,4.3028571428571425,2.4534430503845215,False
175,753,4.3028571428571425,2.5262649059295654,False
175,753,4.3028571428571425,2.4519479274749756,False
175,753,4.3028571428571425,2.4674108028411865,False
175,753,4.3028571428571425,2.498430013656616,False
175,753,4.3028571428571425,2.4525349140167236,False
225,960,4.266666666666667,3.3711600303649902,False
225,960,4.266666666666667,3.031796932220459,False
225,960,4.266666666666667,3.1892638206481934,False
225,960,4.266666666666667,3.1661319732666016,False
225,960,4.266666666666667,3.3765320777893066,False
225,960,4.266666666666667,3.0804011821746826,False
225,960,4.266666666666667,3.049859046936035,False
225,960,4.266666666666667,3.176935911178589,False
225,960,4.266666666666667,3.1230719089508057,False
225,960,4.266666666666667,3.1308820247650146,False
225,960,4.266666666666667,3.155308961868286,False
225,960,4.266666666666667,3.0597970485687256,False
225,960,4.266666666666667,3.0702250003814697,False
225,960,4.266666666666667,3.2365360260009766,False
225,960,4.266666666666667,3.1915271282196045,False
225,960,4.266666666666667,3.3620641231536865,False
225,960,4.266666666666667,3.152513027191162,False
225,960,4.266666666666667,3.1448400020599365,False
225,960,4.266666666666667,3.166086196899414,False
225,960,4.266666666666667,3.1111550331115723,False
225,960,4.266666666666667,3.0877621173858643,False
225,960,4.266666666666667,3.561824083328247,False
225,960,4.266666666666667,3.1073930263519287,False
225,960,4.266666666666667,3.37253999710083,False
225,960,4.266666666666667,3.0590310096740723,False
225,960,4.266666666666667,3.292309045791626,False
225,960,4.266666666666667,3.2028517723083496,False
225,960,4.266666666666667,3.091958999633789,False
225,960,4.266666666666667,3.1493031978607178,False
225,960,4.266666666666667,3.03417706489563,False
225,960,4.266666666666667,3.2406630516052246,False
225,960,4.266666666666667,3.196135997772217,False
225,960,4.266666666666667,3.226607084274292,False
225,960,4.266666666666667,3.1874210834503174,False
225,960,4.266666666666667,3.000178813934326,False
225,960,4.266666666666667,3.3640270233154297,False
225,960,4.266666666666667,3.0917210578918457,False
225,960,4.266666666666667,3.144411087036133,False
225,960,4.266666666666667,3.0417380332946777,False
225,960,4.266666666666667,3.0715229511260986,False
225,960,4.266666666666667,3.182576894760132,False
225,960,4.266666666666667,3.2011609077453613,False
225,960,4.266666666666667,3.1352620124816895,False
225,960,4.266666666666667,3.309765100479126,False
225,960,4.266666666666667,3.113105058670044,False
225,960,4.266666666666667,3.1047282218933105,False
225,960,4.266666666666667,3.089895009994507,False
225,960,4.266666666666667,3.1088690757751465,False
225,960,4.266666666666667,3.3040571212768555,False
225,960,4.266666666666667,3.3792150020599365,False
225,960,4.266666666666667,3.1088900566101074,False
225,960,4.266666666666667,3.0994181632995605,False
225,960,4.266666666666667,3.1707069873809814,False
225,960,4.266666666666667,3.1356420516967773,False
225,960,4.266666666666667,3.2375640869140625,False
225,960,4.266666666666667,3.1595470905303955,False
225,960,4.266666666666667,3.3873698711395264,False
225,960,4.266666666666667,3.2528440952301025,False
225,960,4.266666666666667,3.3742868900299072,False
225,960,4.266666666666667,3.1474878787994385,False
225,960,4.266666666666667,3.20028018951416,False
225,960,4.266666666666667,3.1589348316192627,False
225,960,4.266666666666667,3.092410087585449,False
225,960,4.266666666666667,3.3658809661865234,False
225,960,4.266666666666667,3.2593448162078857,False
225,960,4.266666666666667,3.1238908767700195,False
225,960,4.266666666666667,3.1905620098114014,False
225,960,4.266666666666667,3.2269628047943115,False
225,960,4.266666666666667,3.088351011276245,False
225,960,4.266666666666667,3.244830846786499,False
225,960,4.266666666666667,3.2565741539001465,False
225,960,4.266666666666667,3.218999147415161,False
225,960,4.266666666666667,3.19960880279541,False
225,960,4.266666666666667,3.2602880001068115,False
225,960,4.266666666666667,3.022845983505249,False
225,960,4.266666666666667,3.0572669506073,False
225,960,4.266666666666667,3.256711006164551,False
225,960,4.266666666666667,3.096147060394287,False
225,960,4.266666666666667,3.0373659133911133,False
225,960,4.266666666666667,3.1463849544525146,False
225,960,4.266666666666667,3.1241328716278076,False
225,960,4.266666666666667,3.3567821979522705,False
225,960,4.266666666666667,3.0634119510650635,False
225,960,4.266666666666667,3.286039113998413,False
225,960,4.266666666666667,3.37204909324646,False
225,960,4.266666666666667,3.106860876083374,False
225,960,4.266666666666667,3.1525790691375732,False
225,960,4.266666666666667,3.159903049468994,False
225,960,4.266666666666667,3.3662240505218506,False
225,960,4.266666666666667,3.16904616355896,False
225,960,4.266666666666667,3.170196056365967,False
225,960,4.266666666666667,3.169541120529175,False
225,960,4.266666666666667,3.1716198921203613,False
225,960,4.266666666666667,3.1630630493164062,False
225,960,4.266666666666667,3.1025259494781494,False
225,960,4.266666666666667,3.0718820095062256,False
225,960,4.266666666666667,3.1164801120758057,False
225,960,4.266666666666667,3.247610092163086,False
225,960,4.266666666666667,3.195857048034668,False
225,960,4.266666666666667,3.1268250942230225,False
250,1065,4.26,3.4898228645324707,False
250,1065,4.26,3.4730210304260254,False
250,1065,4.26,3.4223251342773438,False
250,1065,4.26,3.6058380603790283,False
250,1065,4.26,3.4120230674743652,False
250,1065,4.26,3.4544310569763184,False
250,1065,4.26,3.459127187728882,False
250,1065,4.26,3.591785192489624,False
250,1065,4.26,3.4373459815979004,False
250,1065,4.26,3.5432541370391846,False
250,1065,4.26,3.5716469287872314,False
250,1065,4.26,3.5981831550598145,False
250,1065,4.26,3.3494749069213867,False
250,1065,4.26,3.830503225326538,False
250,1065,4.26,3.5512099266052246,False
250,1065,4.26,3.436854124069214,False
250,1065,4.26,3.5014498233795166,False
250,1065,4.26,3.4642081260681152,False
250,1065,4.26,3.416846990585327,False
250,1065,4.26,3.4755051136016846,False
250,1065,4.26,3.7515740394592285,False
250,1065,4.26,3.4753620624542236,False
250,1065,4.26,3.776792049407959,False
250,1065,4.26,3.6185779571533203,False
250,1065,4.26,3.511528968811035,False
250,1065,4.26,3.4170918464660645,False
250,1065,4.26,3.479518175125122,False
250,1065,4.26,3.524907112121582,False
250,1065,4.26,3.509300947189331,False
250,1065,4.26,3.4212350845336914,False
250,1065,4.26,3.6264848709106445,False
250,1065,4.26,3.5476770401000977,False
250,1065,4.26,3.4158480167388916,False
250,1065,4.26,3.4315860271453857,False
250,1065,4.26,3.7012851238250732,False
250,1065,4.26,3.484744071960449,False
250,1065,4.26,3.719334840774536,False
250,1065,4.26,3.4022388458251953,False
250,1065,4.26,3.4155960083007812,False
250,1065,4.26,3.5395541191101074,False
250,1065,4.26,3.516529083251953,False
250,1065,4.26,3.4894890785217285,False
250,1065,4.26,3.3783719539642334,False
250,1065,4.26,3.555100202560425,False
250,1065,4.26,3.5311789512634277,False
250,1065,4.26,3.5993130207061768,False
250,1065,4.26,3.505086898803711,False
250,1065,4.26,3.6020498275756836,False
250,1065,4.26,3.168868064880371,False
250,1065,4.26,3.476807117462158,False
250,1065,4.26,3.700428009033203,False
250,1065,4.26,3.6120879650115967,False
250,1065,4.26,3.6996572017669678,False
250,1065,4.26,3.5864551067352295,False
250,1065,4.26,3.795444965362549,False
250,1065,4.26,3.70699405670166,False
250,1065,4.26,3.510512113571167,False
250,1065,4.26,3.431485891342163,False
250,1065,4.26,3.4425368309020996,False
250,1065,4.26,3.561447858810425,False
250,1065,4.26,3.615478992462158,False
250,1065,4.26,3.599586009979248,False
250,1065,4.26,3.786332130432129,False
250,1065,4.26,3.6577560901641846,False
250,1065,4.26,3.4409940242767334,False
250,1065,4.26,3.398566961288452,False
250,1065,4.26,3.917910099029541,False
250,1065,4.26,3.4112350940704346,False
250,1065,4.26,3.613502025604248,False
250,1065,4.26,3.5375759601593018,False
250,1065,4.26,3.629572868347168,False
250,1065,4.26,3.605562925338745,False
250,1065,4.26,3.4654881954193115,False
250,1065,4.26,3.6936819553375244,False
250,1065,4.26,3.419029951095581,False
250,1065,4.26,3.543523073196411,False
250,1065,4.26,3.5995559692382812,False
250,1065,4.26,3.6491198539733887,False
250,1065,4.26,3.50061297416687,False
250,1065,4.26,3.4167399406433105,False
250,1065,4.26,3.574431896209717,False
250,1065,4.26,3.677500009536743,False
250,1065,4.26,3.595945119857788,False
250,1065,4.26,3.4161388874053955,False
250,1065,4.26,3.690311908721924,False
250,1065,4.26,3.583219051361084,False
250,1065,4.26,3.458770990371704,False
250,1065,4.26,3.681988000869751,False
250,1065,4.26,3.681462049484253,False
250,1065,4.26,3.590212106704712,False
250,1065,4.26,3.5255370140075684,False
250,1065,4.26,3.482172966003418,False
250,1065,4.26,3.5315120220184326,False
250,1065,4.26,3.6802210807800293,False
250,1065,4.26,3.5631630420684814,False
250,1065,4.26,3.4487040042877197,False
250,1065,4.26,3.662364959716797,False
250,1065,4.26,3.7096478939056396,False
250,1065,4.26,3.489635944366455,False
250,1065,4.26,3.497188091278076,False
