\relax 
\providecommand\hyper@newdestlabel[2]{}
\@writefile{toc}{\contentsline {section}{\numberline {1}Soundness and Completeness}{1}{section.1}}
\@writefile{toc}{\contentsline {section}{\numberline {2}Brief Description of the Implemented Algorithms}{1}{section.2}}
\@writefile{toc}{\contentsline {subsection}{\numberline {2.1}WalkSAT}{1}{subsection.2.1}}
\@writefile{toc}{\contentsline {subsection}{\numberline {2.2}GSAT}{1}{subsection.2.2}}
\@writefile{toc}{\contentsline {subsection}{\numberline {2.3}DPLL}{1}{subsection.2.3}}
\@writefile{toc}{\contentsline {section}{\numberline {3}Algorithm Performance Analysis}{1}{section.3}}
\@writefile{toc}{\contentsline {subsection}{\numberline {3.1}Number of Clauses}{1}{subsection.3.1}}
\@writefile{toc}{\contentsline {subsection}{\numberline {3.2}Number of Variables}{1}{subsection.3.2}}
\@writefile{toc}{\contentsline {subsection}{\numberline {3.3}Clauses-per-Variable Ratio}{1}{subsection.3.3}}
\@writefile{toc}{\contentsline {section}{\numberline {4}Conclusion}{1}{section.4}}
\@setckpt{Teoria}{
\setcounter{page}{2}
\setcounter{equation}{0}
\setcounter{enumi}{0}
\setcounter{enumii}{0}
\setcounter{enumiii}{0}
\setcounter{enumiv}{0}
\setcounter{footnote}{0}
\setcounter{mpfootnote}{0}
\setcounter{part}{0}
\setcounter{section}{4}
\setcounter{subsection}{0}
\setcounter{subsubsection}{0}
\setcounter{paragraph}{0}
\setcounter{subparagraph}{0}
\setcounter{figure}{0}
\setcounter{table}{0}
\setcounter{pp@next@reset}{0}
\setcounter{ContinuedFloat}{0}
\setcounter{nlinenum}{0}
\setcounter{Item}{0}
\setcounter{Hfootnote}{0}
\setcounter{bookmark@seq@number}{10}
\setcounter{parentequation}{0}
\setcounter{IEEEsubequation}{0}
\setcounter{lstnumber}{1}
\setcounter{section@level}{1}
\setcounter{lstlisting}{0}
}
