PWD /mnt/sda4/Mega/Public/Cadeiras/4º Ano/S1/IA/lab2-ia/Report
INPUT /etc/texmf/web2c/texmf.cnf
INPUT /usr/share/texmf/web2c/texmf.cnf
INPUT /usr/share/texlive/texmf-dist/web2c/texmf.cnf
INPUT /var/lib/texmf/web2c/pdftex/pdflatex.fmt
INPUT Teoria.tex
OUTPUT Aux/Teoria.log
