PWD /mnt/sda4/Mega/Public/Cadeiras/4º Ano/S1/IA/lab2-ia/Report
INPUT /etc/texmf/web2c/texmf.cnf
INPUT /usr/share/texmf/web2c/texmf.cnf
INPUT /usr/share/texlive/texmf-dist/web2c/texmf.cnf
INPUT /var/lib/texmf/web2c/pdftex/pdflatex.fmt
INPUT title.tex
OUTPUT Aux/title.log
INPUT /home/roque/texmf/fonts/map/fontname/texfonts.map
INPUT /usr/share/texlive/texmf-dist/fonts/map/fontname/texfonts.map
INPUT /home/roque/texmf/fonts/tfm/public/cm/cmcsc10.tfm
INPUT /home/roque/texmf/fonts/tfm/public/cm/cmbx10.tfm
INPUT /home/roque/texmf/fonts/tfm/public/cm/cmti10.tfm
